soce_dzyn26_initial_primer_design
…
panel.txt primers.txt pos.txt fwd.txt ampRef.fa

To mimic the mimic the oyster panel design criteria, the 75 bp panels are most appropriate. To target a well-behaving panel, the recombination filter and adjacent SNP-filtering rules were selected. Thus, all results below are for the red_drum_11_75 panel.

The key output files were:

panel.txt: selected loci and expected heterozygosity

panel_txt <- read_table(here::here("data","raw","red_drum_11_75panel.txt"),
                        col_types = cols(Pos = col_character()))

panel_txt

# A tibble: 500 × 9
   Chr        Pos         summaryHe wStart   wEnd  score lastStart lastEnd Locus
   <chr>      <chr>           <dbl>  <dbl>  <dbl>  <dbl>     <dbl>   <dbl> <chr>
 1 CP136866.1 15550516,1…     0.75  1.56e7 1.56e7 2.32e7         1  3.10e7 CP13…
 2 CP136866.1 23328565,2…     0.73  2.33e7 2.33e7 1.12e7  15550516  3.10e7 CP13…
 3 CP136866.1 8254043,82…     0.75  8.25e6 8.25e6 1.09e7         1  1.56e7 CP13…
 4 CP136866.1 4095338,40…     0.74  4.10e6 4.10e6 6.06e6         1  8.25e6 CP13…
 5 CP136866.1 19438567,1…     0.715 1.94e7 1.94e7 5.56e6  15550516  2.33e7 CP13…
 6 CP136866.1 27231431,2…     0.7   2.72e7 2.72e7 5.30e6  23328565  3.10e7 CP13…
 7 CP136866.1 12045793,1…     0.685 1.20e7 1.20e7 4.80e6   8254043  1.56e7 CP13…
 8 CP136866.1 17341669,1…     0.79  1.73e7 1.73e7 2.83e6  15550516  1.94e7 CP13…
 9 CP136866.1 29130903,2…     0.74  2.91e7 2.91e7 2.80e6  27231431  3.10e7 CP13…
10 CP136866.1 13849107,1…     0.805 1.38e7 1.38e7 2.74e6  12045793  1.56e7 CP13…
# ℹ 490 more rows
…
# A tibble: 1 × 4
  mean_he min_he max_he n_loci
    <dbl>  <dbl>  <dbl>  <int>
1   0.707   0.48  0.815    500

primers.txt: forward and reverse primer sequences

primers_txt <- read_table(here::here("data","raw","red_drum_11_75primers.txt"), 
                                                  col_types = cols(Pos = col_character()))

primers_txt

# A tibble: 1,000 × 10
     num seq              orient    tm start   len genomeStart Chr   Pos   Locus
   <dbl> <chr>            <chr>  <dbl> <dbl> <dbl>       <dbl> <chr> <chr> <chr>
 1     0 ACTGTTCTGTTTACT… left    59.0    29    23    15550493 CP13… 1555… CP13…
 2     0 TCACTGATCAATAGC… right   58.4   133    23    15550597 CP13… 1555… CP13…
 3     0 TCTGTGCTGAACATA… left    60.0    17    21    23328537 CP13… 2332… CP13…
 4     0 GGGAGCGCAGATATC… right   60.0   103    20    23328623 CP13… 2332… CP13…
 5     0 ACAACTTAGTACCTC… left    59.8     3    25     8254018 CP13… 8254… CP13…
 6     0 TCCTCTGCAACCCAA… right   59.7   148    20     8254163 CP13… 8254… CP13…
 7     0 GAACGCAGAATCTGG… left    61.0    18    20     4095318 CP13… 4095… CP13…
 8     0 GCAACCAAAGCCTGC… right   59.9    99    20     4095399 CP13… 4095… CP13…
 9     0 TGAAGCTCAGAGTGT… left    59.6    10    20    19438542 CP13… 1943… CP13…
10     0 CCTCAGGTCCGCTGT… right   59.2   121    20    19438653 CP13… 1943… CP13…
# ℹ 990 more rows

pos.txt: SNP positions relative to the amplicon

pos_txt <- read_table(here::here("data","raw","red_drum_11_75pos.txt"), 
                                                  col_types = cols(Pos = col_character()))

pos_txt

# A tibble: 1,891 × 4
   Locus                        RefPos Type  ValidAlt
   <chr>                         <dbl> <chr> <chr>   
 1 CP136866.1_15550516_15550538     24 S     T       
 2 CP136866.1_15550516_15550538     31 S     C       
 3 CP136866.1_15550516_15550538     38 S     T       
 4 CP136866.1_15550516_15550538     41 S     A       
 5 CP136866.1_15550516_15550538     46 S     T       
 6 CP136866.1_23328565_23328594     29 S     A       
 7 CP136866.1_23328565_23328594     32 S     T       
 8 CP136866.1_23328565_23328594     42 S     G       
 9 CP136866.1_23328565_23328594     53 S     A       
10 CP136866.1_23328565_23328594     58 S     T       
# ℹ 1,881 more rows

fwd.txt: forward primer list for downstream genotyping

fwd_txt <- read_table(here::here("data","raw","red_drum_11_75fwd.txt"), 
                                                  col_types = cols(Pos = col_character()))

fwd_txt

# A tibble: 500 × 2
   Locus                        seq                      
   <chr>                        <chr>                    
 1 CP136866.1_15550516_15550538 ACTGTTCTGTTTACTCCTCTGGT  
 2 CP136866.1_23328565_23328594 TCTGTGCTGAACATAACCGCT    
 3 CP136866.1_8254043_8254089   ACAACTTAGTACCTCTTCTCACAGG
 4 CP136866.1_4095338_4095374   GAACGCAGAATCTGGCACCA     
 5 CP136866.1_19438567_19438606 TGAAGCTCAGAGTGTGGTGG     
 6 CP136866.1_27231431_27231452 GCCTCTCGCAACCCTGATAA     
 7 CP136866.1_12045793_12045810 TGGAACGCTGTCATTTTTGGG    
 8 CP136866.1_17341669_17341706 ACTGAGAAAGGCCAATATTGATTGA
 9 CP136866.1_29130903_29130947 CATGATTGGGTTGCAAGCTGT    
10 CP136866.1_13849107_13849154 AGACAGACAGTGAGTGGGGA     
# ℹ 490 more rows
…
Interactions identified by primer pooler with dG less than -4

hits_loci <- hits %>%
  #mutate(primer1 = str_replace_all(primer1,"-","_")) %>%
  #mutate(primer2 = str_replace_all(primer2, "-","_")) %>%
  mutate(
    locus1 = str_remove(primer1, "-[FR]$"),
    locus2 = str_remove(primer2, "-[FR]$")
  ) %>%
  mutate(locus1 = str_replace_all(locus1,"-","_")) %>%
  mutate(locus2 = str_replace_all(locus2, "-","_"))

hits_loci

# A tibble: 1,568 × 6
   hit_id primer1     primer2         dG locus1    locus2   
    <int> <chr>       <chr>        <dbl> <chr>     <chr>    
 1      1 soce-0005-F soce-0267-R -10.9  soce_0005 soce_0267
 2      2 soce-0036-F soce-0310-F  -8.8  soce_0036 soce_0310
 3      3 soce-0436-F soce-0436-F  -8.55 soce_0436 soce_0436
 4      4 soce-0177-R soce-0427-R  -8.4  soce_0177 soce_0427
 5      5 soce-0147-R soce-0232-F  -8.13 soce_0147 soce_0232
 6      6 soce-0205-R soce-0322-F  -7.9  soce_0205 soce_0322
 7      7 soce-0142-F soce-0381-R  -7.77 soce_0142 soce_0381
 8      8 soce-0267-R soce-0470-R  -7.7  soce_0267 soce_0470
 9      9 soce-0169-R soce-0169-R  -7.7  soce_0169 soce_0169
10     10 soce-0135-R soce-0486-F  -7.5  soce_0135 soce_0486
# ℹ 1,558 more rows
…
Yes, looks like there are 18 amplicons that would contain at least one of these snps. Let’s filter these out.

remove_hwe <- panel_hwe_hits %>%
  count(locus_prefix, name = "n_failed_snps") %>%
  arrange(desc(n_failed_snps)) %>%
  pull(locus_prefix)

final_set_primers <- filtered_primers %>%
    filter(!locus %in% remove_hwe)

final_set_primers

# A tibble: 834 × 3
   locus_id    seq                     locus    
   <chr>       <chr>                   <chr>    
 1 soce_0001_F ACTGTTCTGTTTACTCCTCTGGT soce_0001
 2 soce_0001_R TCACTGATCAATAGCAAGCTTGT soce_0001
 3 soce_0002_F TCTGTGCTGAACATAACCGCT   soce_0002
 4 soce_0002_R GGGAGCGCAGATATCGTGAA    soce_0002
 5 soce_0004_F GAACGCAGAATCTGGCACCA    soce_0004
 6 soce_0004_R GCAACCAAAGCCTGCTCAAA    soce_0004
 7 soce_0005_F TGAAGCTCAGAGTGTGGTGG    soce_0005
 8 soce_0005_R CCTCAGGTCCGCTGTTGATA    soce_0005
 9 soce_0006_F GCCTCTCGCAACCCTGATAA    soce_0006
10 soce_0006_R AGTTACCATGCAAATGTCACGA  soce_0006
# ℹ 824 more rows
…
